{
    "uid": "BD_PY_FUNC_LAM",
    "TRN_EVL_ID": "IDF",
    "NETWORK": "COMMERCIAL",
    "KSATs": [
        [
            "K0028",
            "B"
        ]
    ],
    "course": "IDF",
    "module": "Python",
    "topic": "functions",
    "subject": "lambda_functions",
    "lecture_time": 50,
    "perf_demo_time": 0,
    "references": [],
    "lesson_objectives": [
        {
            "description": "Describe the purpose and use of lambda functions in Python.",
            "proficiency_level": "B",
            "KSATs": [
                "K0028"
            ],
            "MSBs": []
        }
    ],
    "performance_objectives": [],
    "workroles": [
        "basic-dev"
    ]
}