{
    "uid": "BD_PY_OOP_Modules",
    "TRN_EVL_ID": "IDF",
    "NETWORK": "COMMERCIAL",
    "KSATs": [
        [
            "K0013",
            "B"
        ],
        [
            "K0024",
            "B"
        ],
        [
            "A0561",
            "3"
        ],
        [
            "S0026",
            "1"
        ]
    ],
    "course": "IDF",
    "module": "Python",
    "topic": "oop",
    "subject": "modules",
    "lecture_time": 45,
    "perf_demo_time": 0,
    "references": [],
    "lesson_objectives": [
        {
            "description": "Understand how to import modules and module components in Python.",
            "proficiency_level": "C",
            "KSATs": [
                "K0013"
            ],
            "MSBs": [
                {
                    "description": "Employ the Python standard library to solve a problem.",
                    "KSATs": [
                        "K0024"
                    ],
                    "proficiency_level": "C"
                }
            ]
        }
    ],
    "performance_objectives": [
        {
            "description": "Create, reuse and import modules in Python.",
            "KSATs": [
                "A0561"
            ]
        },
        {
            "description": "Utilize modules in the Python standard library.",
            "KSATs": [
                "S0026"
            ]
        }
    ],
    "workroles": [
        "basic-dev"
    ]
}