{
    "uid": "BD_PY_OOP_PRNCPL",
    "TRN_EVL_ID": "IDF",
    "NETWORK": "COMMERCIAL",
    "KSATs": [
        [
            "K0030",
            "C"
        ],
        [
            "K0035",
            "A"
        ]
    ],
    "course": "IDF",
    "module": "Python",
    "topic": "oop",
    "subject": "oop_principles",
    "lecture_time": 30,
    "perf_demo_time": 60,
    "references": [],
    "lesson_objectives": [
        {
            "description": "Describe the terms and fundamentals associated with object-orientated programming using Python.",
            "proficiency_level": "C",
            "KSATs": [
                "K0030"
            ],
            "MSBs": [
                {
                    "description": "Describe the advantages of object-orientated programming in Python.",
                    "proficiency_level": "A",
                    "KSATs": [
                        "K0035"
                    ]
                }
            ]
        },
        {
            "description": "Discuss Common Priciples of object-orientated programming.",
            "KSATs": [],
            "MSBs": []
        },
        {
            "description": "Discuss Code Styling Considerations of object-orientated programming.",
            "KSATs": [],
            "MSBs": []
        }
    ],
    "performance_objectives": [],
    "workroles": [
        "basic-dev"
    ]
}