{
    "uid": "BD_PY_DTYPES_TUP",
    "TRN_EVL_ID": "IDF",
    "NETWORK": "COMMERCIAL",
    "KSATs": [
        [
            "K0016",
            "B"
        ],
        [
            "S0024",
            "3"
        ]
    ],
    "course": "IDF",
    "module": "Python",
    "topic": "data_types",
    "subject": "tuples",
    "lecture_time": 30,
    "perf_demo_time": 0,
    "references": [],
    "lesson_objectives": [
        {
            "description": "Describe tuples",
            "proficiency_level": "B",
            "KSATs": [
                "K0016"
            ],
            "MSBs": [
                {
                    "description": "Describe the purpose of tuples",
                    "proficiency_level": "B",
                    "KSATs": ["K0016"]
                },
                {
                    "description": "Describe the properties of tuples",
                    "proficiency_level": "B",
                    "KSATs": ["K0016"]
                }
            ]
        },
        {
            "description": "Discuss the use of the range() function in Python3",
            "KSATs": [],
            "MSBs": []
        }
    ],
    "performance_objectives": [
        {
            "description": "Store specified data in a tuple.",
            "KSATs": [
                "S0024"
            ]
        }
    ],
    "workroles": [
        "basic-dev"
    ]
}