{
    "uid": "BD_PY_DTYPES_VAR",
    "TRN_EVL_ID": "IDF",
    "NETWORK": "COMMERCIAL",
    "KSATs": [
        [
            "K0008",
            "B"
        ],
        [
            "K0018",
            "B"
        ],
        [
            "K0019",
            "B"
        ],
        [
            "K0015",
            "B"
        ],
        [
            "K0016",
            "B"
        ],
        [
            "S0023",
            "3"
        ]
    ],
    "course": "IDF",
    "module": "Python",
    "topic": "data_types",
    "subject": "variables",
    "lecture_time": 10,
    "perf_demo_time": 20,
    "references": [],
    "lesson_objectives": [
        {
            "description": "Employ variables in Python",
            "proficiency_level": "C",
            "KSATs": [],
            "MSBs": [
                {
                    "description": "Describe the purpose of variables",
                    "proficiency_level": "B",
                    "KSATs": []
                },
                {
                    "description": "Describe the syntax to determine data type of a variable",
                    "proficiency_level": "B",
                    "KSATs": []
                },
                {
                    "description": "Describe the syntax to assign a variable",
                    "proficiency_level": "B",
                    "KSATs": []
                }
            ]
        },
        {
            "description": "Apply the concept of mutability",
            "proficiency_level": "B",
            "KSATs": [
                "K0018",
                "K0019"
            ],
            "MSBs": [
                {
                    "description": "Describe mutability",
                    "proficiency_level": "B",
                    "KSATs": [
                        "K0018",
                        "K0019"
                    ]
                },
                {
                    "description": "Identify the mutability of specific data types in Python",
                    "proficiency_level": "B",
                    "KSATs": [
                        "K0015",
                        "K0016"
                    ]
                }
            ]
        }
    ],
    "performance_objectives": [
        {
            "description": "Use the Python interpreter to identify the data type",
            "KSATs": [
                "S0023"
            ]
        }
    ],
    "workroles": [
        "basic-dev"
    ]
}